%YAML 1.1
%TAG !u! tag:unity3d.com,2011:
--- !u!21 &2100000
Material:
  serializedVersion: 5
  m_ObjectHideFlags: 0
  m_PrefabParentObject: {fileID: 0}
  m_PrefabInternal: {fileID: 0}
  m_Name: Blocks
  m_Shader: {fileID: 4800000, guid: 5d9442438fe51674ab4cf9e80794336b, type: 3}
  m_ShaderKeywords: 
  m_LightmapFlags: 5
  m_CustomRenderQueue: -1
  m_SavedProperties:
    serializedVersion: 2
    m_TexEnvs:
      data:
        first:
          name: _MainTex
        second:
          m_Texture: {fileID: 0}
          m_Scale: {x: 1, y: 1}
          m_Offset: {x: 0, y: 0}
      data:
        first:
          name: _BumpMap
        second:
          m_Texture: {fileID: 0}
          m_Scale: {x: 1, y: 1}
          m_Offset: {x: 0, y: 0}
      data:
        first:
          name: _NormalMap
        second:
          m_Texture: {fileID: 0}
          m_Scale: {x: 1, y: 1}
          m_Offset: {x: 0, y: 0}
      data:
        first:
          name: colorTex1
        second:
          m_Texture: {fileID: 2800000, guid: e746fe7ff36116e4cb6ef3ad1047378c, type: 3}
          m_Scale: {x: 1, y: 1}
          m_Offset: {x: 0, y: 0}
      data:
        first:
          name: colorTex2
        second:
          m_Texture: {fileID: 2800000, guid: 00fcd53fa5696bc419744b8391f48374, type: 3}
          m_Scale: {x: 1, y: 1}
          m_Offset: {x: 0, y: 0}
      data:
        first:
          name: colorTex3
        second:
          m_Texture: {fileID: 2800000, guid: a7f6b59c6ae286b46b267936e22abf7d, type: 3}
          m_Scale: {x: 1, y: 1}
          m_Offset: {x: 0, y: 0}
      data:
        first:
          name: bumpTex1
        second:
          m_Texture: {fileID: 2800000, guid: 578858dbbb007c243b1b2998f393271f, type: 3}
          m_Scale: {x: 1, y: 1}
          m_Offset: {x: 0, y: 0}
      data:
        first:
          name: bumpTex2
        second:
          m_Texture: {fileID: 2800000, guid: 51f564e6178bea64e993ae6bf31d07f5, type: 3}
          m_Scale: {x: 1, y: 1}
          m_Offset: {x: 0, y: 0}
      data:
        first:
          name: bumpTex3
        second:
          m_Texture: {fileID: 2800000, guid: 145fa44fcff76a54ba1cc8cd3f97c0cd, type: 3}
          m_Scale: {x: 1, y: 1}
          m_Offset: {x: 0, y: 0}
      data:
        first:
          name: _Side
        second:
          m_Texture: {fileID: 2800000, guid: 49d183629522f456981418447438c869, type: 3}
          m_Scale: {x: 1, y: 1}
          m_Offset: {x: 0, y: 0}
      data:
        first:
          name: _Top
        second:
          m_Texture: {fileID: 2800000, guid: 928be703400f4eb48af2f94d55bf3f74, type: 3}
          m_Scale: {x: 1, y: 1}
          m_Offset: {x: 0, y: 0}
      data:
        first:
          name: _Bottom
        second:
          m_Texture: {fileID: 2800000, guid: 591632297e74ba34fa4c65d1265d370a, type: 3}
          m_Scale: {x: 1, y: 1}
          m_Offset: {x: 0, y: 0}
    m_Floats:
      data:
        first:
          name: _Shininess
        second: .699999988
      data:
        first:
          name: tex_scale
        second: .0357142873
      data:
        first:
          name: _SideScale
        second: 2
      data:
        first:
          name: _TopScale
        second: 2
      data:
        first:
          name: _BottomScale
        second: 2
      data:
        first:
          name: _EmissiveIntensity
        second: .5
      data:
        first:
          name: _Specular
        second: 1
      data:
        first:
          name: _Glossiness
        second: 10
    m_Colors:
      data:
        first:
          name: _Color
        second: {r: .477941155, g: .477941155, b: .477941155, a: 1}
      data:
        first:
          name: _SpecColor
        second: {r: 1, g: 1, b: 1, a: 1}
      data:
        first:
          name: _Emission
        second: {r: 0, g: 0, b: 0, a: 0}
